{
    "title": "EAN Sandbox",
    "description": "",
    "keywords": "",
    "canonical": "",
    "alternate": "",
    "ogTitle": "",
    "ogType": "",
    "ogDescription": "",
    "ogUrl": "",
    "ogImage": "",
    "ogSiteName": "",
    "ogEmail": "",
    "fbAppId": "",
    "twitterCard": "",
    "twitterSiteId": ""
}